{
  "M1": "صفحه اصلی",
  "M2": "خدمات",
  "M3": "پورتفولیو",
  "M4": "تماس با ما",
  "T01": "صفحه اصلی",
  "T02": "خدمات",
  "T03": "پورتفولــیو",
  "T04": "تماس با ما",
  "FANI": "خدمات فنی",
  "PARHAM": "پرهام",
  "DETAILES": "گروه خدمات فنی پرهام با بیش از ۱۰ سال سابقه درخشان در زمینه نصب ، سرویس و تعمیرات تخصصی با گذراندن دوره های آموزشی و دارا بودن مدارک معتبر فنی حرفه ای در زمینه کولر گازی ، پکیج دیواری و آبگرمکن و پمپ های آب ساختمانی ",
  "ABOUT1": "گروه خدمات فنی پرهام با بیش از ۱۰ سال سابقه درخشان در زمینه تعمیرات تخصصی کولر گازی، پکیج دیواری، پمپ‌های آب و ... به عنوان یکی از پیشروان صنعت تعمیرات تخصصی و ارائه خدمات حرفه‌ای در کمترین زمان ممکن، با تمرکز بر کیفیت و استفاده از قطعات اصلی و تجهیزات مدرن، با هدف جلب رضایت کامل مشتریان با ارائه ضمانت حُسن انجام کار در خدمت همشهریان عزیز می باشد.",
  "ABOUT2": "در صورت تمایل میتوانید با کارشناسان ما در این زمینه تماس داشته باشید.",
  "TITLE01": "انواع کولرهای گازی",
  "TITLE02": "پکیج های ایران رادیاتور و بوتان",
  "TITLE03": "پمپ آب ساختمانی",
  "SERVICE_TITLE": "فضای خدمات",
  "SERVICE_SUBTITLE": "در این مجموعه تمامی فعالیت های زیر به نحو احسنت و با بهترین کیفیت و به صورت کاملا حرفه ای انجام میگیرد .",
  "SERVICE": "سرویس و تعمیرات",
  "TAMIRAT": "تعمیرات",
  "COOLER": "زمان انجام سرویس کولر گازی ، اکثر مردم فکر میکنند تنها قبل از شروع فصل تابستان باید نسبت به سرویس کولر گازی خود اقدام کنند ، در صورتی که سرویس به موقع و در طول سال باعث کاهش مصرف انرژی و راندمان بهتر دستگاه خواهد بود و رعایت این امر ، افزایش چشمگیر طول عمر مفید دستگاه شما خواهد بود .",
  "POMP": "تعمیر پمپ آب خانگی می بایست همواره توسط کارشناسان زبده صورت گیرد و در غیر این صورت نه تنها پس از تعمیر پمپ راندمان و خروجی مناسب از محصول نخواهید گرفت بلکه ممکن است به دیگر بخش های آن نیز آسیب های غیر قابل جبران برساند",
  "PACKAGE": "نکته بسیار مهم این است که باید در حفظ و نگهداری این وسیله بکوشیم تا خسارات و هزینه‌های جانبی برای سرویس و تعمیر آن در حد امکان کاهش پیدا کند. یکی از خطراتی که این دستگاه گرمایشی را تهدید می‌کند، رسوب املاح آب در قطعات و لوله‌های آن است که به دلیل سختی آب مصرفی شهری اتفاق می‌افتد.",
  "SERVICE_SUBTITLE2": "نمونه هایی از فعالیت های انجام شده یا در حال انجام به صورت مدیا قابل مشاهده است.",
  "COOLER_": "کولر گازی",
  "POMP_": "پمپ آب",
  "PACKAGE_": "انواع پکیج",
  "MIND": "آیا پروژه ای توی ذهنتان هست؟",
  "IDEA": "بیایید چیزی جدید، متفاوت و معنادار با هم بسازیم یا ایده ای رو که دارید قابل مشاهده کنیم. معنای ارتباط عمیق تر و بهتر را با ما تجربه کنید.",
  "US": "با ما در ارتباط باشید",
  "TEL1": "0912   467   71   80",
  "TEL2": "0930   646   43   21",
  "ADDRESS1": "فردیس - فلکه پنجم - بین",
  "ADDRESS2": "48",
  "ADDRESS3": "و",
  "ADDRESS4": "50",
  "ADDRESS5":"شرقی - پلاک",
  "ADDRESS6": "53",
  "CV": "رزومه من",
  "CV2":"نمونه ای از مدارک تایید شده زیر نظر سازمان فنی حرفه ای کشور",
  "Fani1":"تعمیر کار پکیج و شوفاز گازی",
  "Fani2":"تعمیر کار وسایل گاز سوز خانگی",
  "Fani3":"نصاب و تعمیر کار کولرهای گازی پنجره ای و اسپلیت",
  "Gavahi":"گواهی نامه مهارت فنی"
}
